{
    "status": "ok",
    "totalResults": 3,
    "articles": [
        {
            "source": {
                "id": null,
                "name": "NBCSports.com"
            },
            "author": "Myles Simmons",
            "title": "Buccaneers reveal new \"Creamsicle\" jersey - NBC Sports",
            "description": "The Buccaneers' famed \"Creamsicle\" jersey is officially back.",
            "url": "https://www.nbcsports.com/nfl/profootballtalk/rumor-mill/news/buccaneers-reveal-new-creamsicle-jersey",
            "urlToImage": "https://nbcsports.brightspotcdn.com/dims4/default/11e813d/2147483647/strip/true/crop/1920x1080+0+0/resize/1440x810!/quality/90/?url=https%3A%2F%2Fhdliveextra-a.akamaihd.net%2FHD%2Fimage_sports%2FNBCU_Sports_Group_-_nbcsports%2F971%2F739%2Fnbc_pft_bucsuniforms_230613.jpg",
            "publishedAt": "2023-07-12T15:19:08Z",
            "content": "The Buccaneers famed Creamsicle jersey is officially back. \r\nTampa Bay revealed the latest iteration of the throwback jersey on Wednesday with a video\r\n featuring several of the teams legendary playe… [+1131 chars]"
        },
        {
            "source": {
                "id": null,
                "name": "Sports Illustrated"
            },
            "author": "Andy Nesbitt",
            "title": "Shohei Ohtani’s Comments About Seattle After MLB All-Star Game Had Mariners Fans Feeling Optimistic - Sports Illustrated",
            "description": "The Angles star apparently loves the Pacific Northwest.",
            "url": "https://www.si.com/extra-mustard/2023/07/12/mlb-all-star-game-shohei-ohtani-seattle-comments-mariners-fans-optimistic",
            "urlToImage": "https://www.si.com/.image/ar_1.91%2Cc_fill%2Ccs_srgb%2Cfl_progressive%2Cg_faces:center%2Cq_auto:good%2Cw_1200/MTk5MzA2OTQwMDAwNTExMzkw/usatsi_21024566.jpg",
            "publishedAt": "2023-07-12T11:36:38Z",
            "content": "Shohei Ohtani is the coolest player in baseball and he is also set to become the most coveted name in the sport when he becomes a free agent at the end of this season. \r\nThe Los Angeles Angels star w… [+652 chars]"
        },
        {
            "source": {
                "id": null,
                "name": "YouTube"
            },
            "author": null,
            "title": "2023 MLB All-Star Game RECAP: National League Wins for FIRST TIME Since 2012 | CBS Sports - CBS Sports",
            "description": "Matt Snyder and David Samson join CBS Sports HQ to recap the 2023 MLB All-Star Game. SUBSCRIBE TO OUR CHANNEL:https://www.youtube.com/user/CBSSportsWATCHCBS ...",
            "url": "https://www.youtube.com/watch?v=5Ui6SaEPL_Q",
            "urlToImage": "https://i.ytimg.com/vi/5Ui6SaEPL_Q/maxresdefault.jpg",
            "publishedAt": "2023-07-12T04:12:15Z",
            "content": null
        }
    ]
}